<?xml version="1.0" encoding="UTF-8" standalone="no"?>
<!-- Created with Inkscape (http://www.inkscape.org/) -->

<svg
   xmlns:dc="http://purl.org/dc/elements/1.1/"
   xmlns:cc="http://creativecommons.org/ns#"
   xmlns:rdf="http://www.w3.org/1999/02/22-rdf-syntax-ns#"
   xmlns:svg="http://www.w3.org/2000/svg"
   xmlns="http://www.w3.org/2000/svg"
   xmlns:sodipodi="http://sodipodi.sourceforge.net/DTD/sodipodi-0.dtd"
   xmlns:inkscape="http://www.inkscape.org/namespaces/inkscape"
   width="1052.3622"
   height="744.09448"
   id="svg2"
   inkscape:label="Pozadí"
   version="1.1"
   inkscape:version="0.48.4 r9939"
   sodipodi:docname="Projection_scheme_14.svg"
   inkscape:export-filename="/home/k1ll3r/eagle/moje_projekty/RGB LED cube 5x5x5/DOC/Projection_scheme/sources/Projection_scheme_14.png"
   inkscape:export-xdpi="300"
   inkscape:export-ydpi="300">
  <defs
     id="defs3" />
  <sodipodi:namedview
     id="base"
     pagecolor="#ffffff"
     bordercolor="#666666"
     borderopacity="1.0"
     inkscape:pageopacity="0.0"
     inkscape:pageshadow="2"
     inkscape:zoom="1.3674481"
     inkscape:cx="672.68777"
     inkscape:cy="536.11642"
     inkscape:document-units="mm"
     inkscape:current-layer="layer5"
     showgrid="true"
     inkscape:window-width="1440"
     inkscape:window-height="819"
     inkscape:window-x="-7"
     inkscape:window-y="120"
     inkscape:window-maximized="1"
     units="mm"
     inkscape:snap-global="true"
     showguides="false"
     inkscape:guide-bbox="true"
     inkscape:snap-bbox="true"
     inkscape:snap-bbox-midpoints="true">
    <inkscape:grid
       type="xygrid"
       id="grid3003"
       units="mm"
       empspacing="10"
       visible="true"
       enabled="true"
       snapvisiblegridlinesonly="true"
       spacingx="4mm"
       spacingy="4mm" />
  </sodipodi:namedview>
  <metadata
     id="metadata6">
    <rdf:RDF>
      <cc:Work
         rdf:about="">
        <dc:format>image/svg+xml</dc:format>
        <dc:type
           rdf:resource="http://purl.org/dc/dcmitype/StillImage" />
        <dc:title></dc:title>
      </cc:Work>
    </rdf:RDF>
  </metadata>
  <g
     inkscape:groupmode="layer"
     id="layer7"
     inkscape:label="Wall4">
    <path
       style="fill:#000000;fill-opacity:0.03921569;stroke:#a1a1a1;stroke-width:2.83464527;stroke-linecap:butt;stroke-linejoin:miter;stroke-miterlimit:4;stroke-opacity:1;stroke-dasharray:none;display:inline"
       d="m 568.34646,348.6614 283.46451,0 0,-283.464558 -283.46451,0 z"
       id="path3005-7"
       inkscape:connector-curvature="0" />
  </g>
  <g
     inkscape:groupmode="layer"
     id="layer6"
     inkscape:label="Wall3">
    <path
       style="fill:#000000;fill-opacity:0.03921569;stroke:#a1a1a1;stroke-width:2.83464527;stroke-linecap:butt;stroke-linejoin:miter;stroke-miterlimit:4;stroke-opacity:1;stroke-dasharray:none;display:inline"
       d="m 480.47246,433.70075 283.46454,0 0,-283.46455 -283.46454,0 z"
       id="path3005-5"
       inkscape:connector-curvature="0" />
  </g>
  <g
     inkscape:groupmode="layer"
     id="layer5"
     inkscape:label="Wall2">
    <path
       style="fill:#00ff1b;fill-opacity:0.1280277;stroke:#a1a1a1;stroke-width:2.83464527;stroke-linecap:butt;stroke-linejoin:miter;stroke-miterlimit:4;stroke-opacity:1;stroke-dasharray:none;display:inline"
       d="m 395.43299,518.74013 283.46452,0 0,-283.46455 -283.46452,0 z"
       id="path3005"
       inkscape:connector-curvature="0" />
    <g
       id="g3985"
       transform="matrix(7.9999992,0,0,7.9999992,-1926.1415,-2314.488)">
      <path
         transform="translate(5.3149683,5.3149626)"
         d="m 318.89763,317.12598 c 0,0.97845 -0.7932,1.77165 -1.77165,1.77165 -0.97846,0 -1.77166,-0.7932 -1.77166,-1.77165 0,-0.97846 0.7932,-1.77166 1.77166,-1.77166 0.97845,0 1.77165,0.7932 1.77165,1.77166 z"
         sodipodi:ry="1.7716535"
         sodipodi:rx="1.7716535"
         sodipodi:cy="317.12598"
         sodipodi:cx="317.12598"
         id="path3035"
         style="fill:#00bd05;fill-opacity:0.47058824;fill-rule:evenodd;stroke:#444444;stroke-width:0.35433072;stroke-linecap:round;stroke-linejoin:miter;stroke-miterlimit:4;stroke-opacity:1;stroke-dasharray:none;stroke-dashoffset:0"
         sodipodi:type="arc" />
      <path
         transform="translate(5.3149683,26.574805)"
         d="m 318.89763,317.12598 c 0,0.97845 -0.7932,1.77165 -1.77165,1.77165 -0.97846,0 -1.77166,-0.7932 -1.77166,-1.77165 0,-0.97846 0.7932,-1.77166 1.77166,-1.77166 0.97845,0 1.77165,0.7932 1.77165,1.77166 z"
         sodipodi:ry="1.7716535"
         sodipodi:rx="1.7716535"
         sodipodi:cy="317.12598"
         sodipodi:cx="317.12598"
         id="path3035-7"
         style="fill:#00bd05;fill-opacity:0.47058824;fill-rule:evenodd;stroke:#444444;stroke-width:0.35433072;stroke-linecap:round;stroke-linejoin:miter;stroke-miterlimit:4;stroke-opacity:1;stroke-dasharray:none;stroke-dashoffset:0"
         sodipodi:type="arc" />
      <path
         transform="translate(5.3149683,33.661419)"
         d="m 318.89763,317.12598 c 0,0.97845 -0.7932,1.77165 -1.77165,1.77165 -0.97846,0 -1.77166,-0.7932 -1.77166,-1.77165 0,-0.97846 0.7932,-1.77166 1.77166,-1.77166 0.97845,0 1.77165,0.7932 1.77165,1.77166 z"
         sodipodi:ry="1.7716535"
         sodipodi:rx="1.7716535"
         sodipodi:cy="317.12598"
         sodipodi:cx="317.12598"
         id="path3035-5"
         style="fill:#00bd05;fill-opacity:0.47058824;fill-rule:evenodd;stroke:#444444;stroke-width:0.35433072;stroke-linecap:round;stroke-linejoin:miter;stroke-miterlimit:4;stroke-opacity:1;stroke-dasharray:none;stroke-dashoffset:0"
         sodipodi:type="arc" />
      <path
         transform="translate(5.3149683,12.401577)"
         d="m 318.89763,317.12598 c 0,0.97845 -0.7932,1.77165 -1.77165,1.77165 -0.97846,0 -1.77166,-0.7932 -1.77166,-1.77165 0,-0.97846 0.7932,-1.77166 1.77166,-1.77166 0.97845,0 1.77165,0.7932 1.77165,1.77166 z"
         sodipodi:ry="1.7716535"
         sodipodi:rx="1.7716535"
         sodipodi:cy="317.12598"
         sodipodi:cx="317.12598"
         id="path3035-6"
         style="fill:#00bd05;fill-opacity:0.47058824;fill-rule:evenodd;stroke:#444444;stroke-width:0.35433072;stroke-linecap:round;stroke-linejoin:miter;stroke-miterlimit:4;stroke-opacity:1;stroke-dasharray:none;stroke-dashoffset:0"
         sodipodi:type="arc" />
      <path
         transform="translate(5.3149683,19.488191)"
         d="m 318.89763,317.12598 c 0,0.97845 -0.7932,1.77165 -1.77165,1.77165 -0.97846,0 -1.77166,-0.7932 -1.77166,-1.77165 0,-0.97846 0.7932,-1.77166 1.77166,-1.77166 0.97845,0 1.77165,0.7932 1.77165,1.77166 z"
         sodipodi:ry="1.7716535"
         sodipodi:rx="1.7716535"
         sodipodi:cy="317.12598"
         sodipodi:cx="317.12598"
         id="path3035-1"
         style="fill:#00bd05;fill-opacity:0.47058824;fill-rule:evenodd;stroke:#444444;stroke-width:0.35433072;stroke-linecap:round;stroke-linejoin:miter;stroke-miterlimit:4;stroke-opacity:1;stroke-dasharray:none;stroke-dashoffset:0"
         sodipodi:type="arc" />
    </g>
    <g
       id="g3978"
       transform="matrix(7.9999992,0,0,7.9999992,-2209.606,-2314.488)">
      <path
         transform="translate(12.401582,5.3149626)"
         d="m 318.89763,317.12598 c 0,0.97845 -0.7932,1.77165 -1.77165,1.77165 -0.97846,0 -1.77166,-0.7932 -1.77166,-1.77165 0,-0.97846 0.7932,-1.77166 1.77166,-1.77166 0.97845,0 1.77165,0.7932 1.77165,1.77166 z"
         sodipodi:ry="1.7716535"
         sodipodi:rx="1.7716535"
         sodipodi:cy="317.12598"
         sodipodi:cx="317.12598"
         id="path3035-0"
         style="fill:#00bd05;fill-opacity:0;fill-rule:evenodd;stroke:#444444;stroke-width:0.35433072;stroke-linecap:round;stroke-linejoin:miter;stroke-miterlimit:4;stroke-opacity:1;stroke-dasharray:none;stroke-dashoffset:0"
         sodipodi:type="arc" />
      <path
         transform="translate(12.401582,12.401577)"
         d="m 318.89763,317.12598 c 0,0.97845 -0.7932,1.77165 -1.77165,1.77165 -0.97846,0 -1.77166,-0.7932 -1.77166,-1.77165 0,-0.97846 0.7932,-1.77166 1.77166,-1.77166 0.97845,0 1.77165,0.7932 1.77165,1.77166 z"
         sodipodi:ry="1.7716535"
         sodipodi:rx="1.7716535"
         sodipodi:cy="317.12598"
         sodipodi:cx="317.12598"
         id="path3035-0-9"
         style="fill:#00bd05;fill-opacity:0;fill-rule:evenodd;stroke:#444444;stroke-width:0.35433072;stroke-linecap:round;stroke-linejoin:miter;stroke-miterlimit:4;stroke-opacity:1;stroke-dasharray:none;stroke-dashoffset:0"
         sodipodi:type="arc" />
      <path
         transform="translate(12.401582,19.488185)"
         d="m 318.89763,317.12598 c 0,0.97845 -0.7932,1.77165 -1.77165,1.77165 -0.97846,0 -1.77166,-0.7932 -1.77166,-1.77165 0,-0.97846 0.7932,-1.77166 1.77166,-1.77166 0.97845,0 1.77165,0.7932 1.77165,1.77166 z"
         sodipodi:ry="1.7716535"
         sodipodi:rx="1.7716535"
         sodipodi:cy="317.12598"
         sodipodi:cx="317.12598"
         id="path3035-0-1"
         style="fill:#00bd05;fill-opacity:0;fill-rule:evenodd;stroke:#444444;stroke-width:0.35433072;stroke-linecap:round;stroke-linejoin:miter;stroke-miterlimit:4;stroke-opacity:1;stroke-dasharray:none;stroke-dashoffset:0"
         sodipodi:type="arc" />
      <path
         transform="translate(12.401582,26.574805)"
         d="m 318.89763,317.12598 c 0,0.97845 -0.7932,1.77165 -1.77165,1.77165 -0.97846,0 -1.77166,-0.7932 -1.77166,-1.77165 0,-0.97846 0.7932,-1.77166 1.77166,-1.77166 0.97845,0 1.77165,0.7932 1.77165,1.77166 z"
         sodipodi:ry="1.7716535"
         sodipodi:rx="1.7716535"
         sodipodi:cy="317.12598"
         sodipodi:cx="317.12598"
         id="path3035-0-9-3"
         style="fill:#00bd05;fill-opacity:0;fill-rule:evenodd;stroke:#444444;stroke-width:0.35433072;stroke-linecap:round;stroke-linejoin:miter;stroke-miterlimit:4;stroke-opacity:1;stroke-dasharray:none;stroke-dashoffset:0"
         sodipodi:type="arc" />
      <path
         transform="translate(12.401582,33.661419)"
         d="m 318.89763,317.12598 c 0,0.97845 -0.7932,1.77165 -1.77165,1.77165 -0.97846,0 -1.77166,-0.7932 -1.77166,-1.77165 0,-0.97846 0.7932,-1.77166 1.77166,-1.77166 0.97845,0 1.77165,0.7932 1.77165,1.77166 z"
         sodipodi:ry="1.7716535"
         sodipodi:rx="1.7716535"
         sodipodi:cy="317.12598"
         sodipodi:cx="317.12598"
         id="path3035-0-9-3-1"
         style="fill:#00bd05;fill-opacity:0;fill-rule:evenodd;stroke:#444444;stroke-width:0.35433072;stroke-linecap:round;stroke-linejoin:miter;stroke-miterlimit:4;stroke-opacity:1;stroke-dasharray:none;stroke-dashoffset:0"
         sodipodi:type="arc" />
    </g>
    <g
       id="g3971"
       transform="matrix(7.9999992,0,0,7.9999992,-2209.606,-2314.488)">
      <path
         transform="translate(19.488197,5.3149592)"
         d="m 318.89763,317.12598 c 0,0.97845 -0.7932,1.77165 -1.77165,1.77165 -0.97846,0 -1.77166,-0.7932 -1.77166,-1.77165 0,-0.97846 0.7932,-1.77166 1.77166,-1.77166 0.97845,0 1.77165,0.7932 1.77165,1.77166 z"
         sodipodi:ry="1.7716535"
         sodipodi:rx="1.7716535"
         sodipodi:cy="317.12598"
         sodipodi:cx="317.12598"
         id="path3035-0-0"
         style="fill:#00bd05;fill-opacity:0;fill-rule:evenodd;stroke:#444444;stroke-width:0.35433072;stroke-linecap:round;stroke-linejoin:miter;stroke-miterlimit:4;stroke-opacity:1;stroke-dasharray:none;stroke-dashoffset:0"
         sodipodi:type="arc" />
      <path
         transform="translate(19.488197,12.401579)"
         d="m 318.89763,317.12598 c 0,0.97845 -0.7932,1.77165 -1.77165,1.77165 -0.97846,0 -1.77166,-0.7932 -1.77166,-1.77165 0,-0.97846 0.7932,-1.77166 1.77166,-1.77166 0.97845,0 1.77165,0.7932 1.77165,1.77166 z"
         sodipodi:ry="1.7716535"
         sodipodi:rx="1.7716535"
         sodipodi:cy="317.12598"
         sodipodi:cx="317.12598"
         id="path3035-0-9-8"
         style="fill:#00bd05;fill-opacity:0;fill-rule:evenodd;stroke:#444444;stroke-width:0.35433072;stroke-linecap:round;stroke-linejoin:miter;stroke-miterlimit:4;stroke-opacity:1;stroke-dasharray:none;stroke-dashoffset:0"
         sodipodi:type="arc" />
      <path
         transform="translate(19.488197,19.488179)"
         d="m 318.89763,317.12598 c 0,0.97845 -0.7932,1.77165 -1.77165,1.77165 -0.97846,0 -1.77166,-0.7932 -1.77166,-1.77165 0,-0.97846 0.7932,-1.77166 1.77166,-1.77166 0.97845,0 1.77165,0.7932 1.77165,1.77166 z"
         sodipodi:ry="1.7716535"
         sodipodi:rx="1.7716535"
         sodipodi:cy="317.12598"
         sodipodi:cx="317.12598"
         id="path3035-0-1-5"
         style="fill:#00bd05;fill-opacity:0;fill-rule:evenodd;stroke:#444444;stroke-width:0.35433072;stroke-linecap:round;stroke-linejoin:miter;stroke-miterlimit:4;stroke-opacity:1;stroke-dasharray:none;stroke-dashoffset:0"
         sodipodi:type="arc" />
      <path
         transform="translate(19.488197,26.574799)"
         d="m 318.89763,317.12598 c 0,0.97845 -0.7932,1.77165 -1.77165,1.77165 -0.97846,0 -1.77166,-0.7932 -1.77166,-1.77165 0,-0.97846 0.7932,-1.77166 1.77166,-1.77166 0.97845,0 1.77165,0.7932 1.77165,1.77166 z"
         sodipodi:ry="1.7716535"
         sodipodi:rx="1.7716535"
         sodipodi:cy="317.12598"
         sodipodi:cx="317.12598"
         id="path3035-0-9-3-9"
         style="fill:#00bd05;fill-opacity:0;fill-rule:evenodd;stroke:#444444;stroke-width:0.35433072;stroke-linecap:round;stroke-linejoin:miter;stroke-miterlimit:4;stroke-opacity:1;stroke-dasharray:none;stroke-dashoffset:0"
         sodipodi:type="arc" />
      <path
         transform="translate(19.488197,33.661419)"
         d="m 318.89763,317.12598 c 0,0.97845 -0.7932,1.77165 -1.77165,1.77165 -0.97846,0 -1.77166,-0.7932 -1.77166,-1.77165 0,-0.97846 0.7932,-1.77166 1.77166,-1.77166 0.97845,0 1.77165,0.7932 1.77165,1.77166 z"
         sodipodi:ry="1.7716535"
         sodipodi:rx="1.7716535"
         sodipodi:cy="317.12598"
         sodipodi:cx="317.12598"
         id="path3035-0-9-3-1-3"
         style="fill:#00bd05;fill-opacity:0;fill-rule:evenodd;stroke:#444444;stroke-width:0.35433072;stroke-linecap:round;stroke-linejoin:miter;stroke-miterlimit:4;stroke-opacity:1;stroke-dasharray:none;stroke-dashoffset:0"
         sodipodi:type="arc" />
    </g>
    <g
       id="g3964"
       transform="matrix(7.9999992,0,0,7.9999992,-2209.606,-2314.488)">
      <path
         transform="translate(26.574811,5.314965)"
         d="m 318.89763,317.12598 c 0,0.97845 -0.7932,1.77165 -1.77165,1.77165 -0.97846,0 -1.77166,-0.7932 -1.77166,-1.77165 0,-0.97846 0.7932,-1.77166 1.77166,-1.77166 0.97845,0 1.77165,0.7932 1.77165,1.77166 z"
         sodipodi:ry="1.7716535"
         sodipodi:rx="1.7716535"
         sodipodi:cy="317.12598"
         sodipodi:cx="317.12598"
         id="path3035-0-3"
         style="fill:#00bd05;fill-opacity:0;fill-rule:evenodd;stroke:#444444;stroke-width:0.35433072;stroke-linecap:round;stroke-linejoin:miter;stroke-miterlimit:4;stroke-opacity:1;stroke-dasharray:none;stroke-dashoffset:0"
         sodipodi:type="arc" />
      <path
         transform="translate(26.574811,12.401585)"
         d="m 318.89763,317.12598 c 0,0.97845 -0.7932,1.77165 -1.77165,1.77165 -0.97846,0 -1.77166,-0.7932 -1.77166,-1.77165 0,-0.97846 0.7932,-1.77166 1.77166,-1.77166 0.97845,0 1.77165,0.7932 1.77165,1.77166 z"
         sodipodi:ry="1.7716535"
         sodipodi:rx="1.7716535"
         sodipodi:cy="317.12598"
         sodipodi:cx="317.12598"
         id="path3035-0-9-7"
         style="fill:#00bd05;fill-opacity:0;fill-rule:evenodd;stroke:#444444;stroke-width:0.35433072;stroke-linecap:round;stroke-linejoin:miter;stroke-miterlimit:4;stroke-opacity:1;stroke-dasharray:none;stroke-dashoffset:0"
         sodipodi:type="arc" />
      <path
         transform="translate(26.574811,19.488185)"
         d="m 318.89763,317.12598 c 0,0.97845 -0.7932,1.77165 -1.77165,1.77165 -0.97846,0 -1.77166,-0.7932 -1.77166,-1.77165 0,-0.97846 0.7932,-1.77166 1.77166,-1.77166 0.97845,0 1.77165,0.7932 1.77165,1.77166 z"
         sodipodi:ry="1.7716535"
         sodipodi:rx="1.7716535"
         sodipodi:cy="317.12598"
         sodipodi:cx="317.12598"
         id="path3035-0-1-9"
         style="fill:#00bd05;fill-opacity:0;fill-rule:evenodd;stroke:#444444;stroke-width:0.35433072;stroke-linecap:round;stroke-linejoin:miter;stroke-miterlimit:4;stroke-opacity:1;stroke-dasharray:none;stroke-dashoffset:0"
         sodipodi:type="arc" />
      <path
         transform="translate(26.574811,26.574805)"
         d="m 318.89763,317.12598 c 0,0.97845 -0.7932,1.77165 -1.77165,1.77165 -0.97846,0 -1.77166,-0.7932 -1.77166,-1.77165 0,-0.97846 0.7932,-1.77166 1.77166,-1.77166 0.97845,0 1.77165,0.7932 1.77165,1.77166 z"
         sodipodi:ry="1.7716535"
         sodipodi:rx="1.7716535"
         sodipodi:cy="317.12598"
         sodipodi:cx="317.12598"
         id="path3035-0-9-3-93"
         style="fill:#00bd05;fill-opacity:0;fill-rule:evenodd;stroke:#444444;stroke-width:0.35433072;stroke-linecap:round;stroke-linejoin:miter;stroke-miterlimit:4;stroke-opacity:1;stroke-dasharray:none;stroke-dashoffset:0"
         sodipodi:type="arc" />
      <path
         transform="translate(26.574811,33.661425)"
         d="m 318.89763,317.12598 c 0,0.97845 -0.7932,1.77165 -1.77165,1.77165 -0.97846,0 -1.77166,-0.7932 -1.77166,-1.77165 0,-0.97846 0.7932,-1.77166 1.77166,-1.77166 0.97845,0 1.77165,0.7932 1.77165,1.77166 z"
         sodipodi:ry="1.7716535"
         sodipodi:rx="1.7716535"
         sodipodi:cy="317.12598"
         sodipodi:cx="317.12598"
         id="path3035-0-9-3-1-0"
         style="fill:#00bd05;fill-opacity:0;fill-rule:evenodd;stroke:#444444;stroke-width:0.35433072;stroke-linecap:round;stroke-linejoin:miter;stroke-miterlimit:4;stroke-opacity:1;stroke-dasharray:none;stroke-dashoffset:0"
         sodipodi:type="arc" />
    </g>
    <g
       transform="matrix(7.9999992,0,0,7.9999992,-2152.9131,-2314.4881)"
       id="g3964-6">
      <path
         transform="translate(26.574811,5.314965)"
         d="m 318.89763,317.12598 c 0,0.97845 -0.7932,1.77165 -1.77165,1.77165 -0.97846,0 -1.77166,-0.7932 -1.77166,-1.77165 0,-0.97846 0.7932,-1.77166 1.77166,-1.77166 0.97845,0 1.77165,0.7932 1.77165,1.77166 z"
         sodipodi:ry="1.7716535"
         sodipodi:rx="1.7716535"
         sodipodi:cy="317.12598"
         sodipodi:cx="317.12598"
         id="path3035-0-3-2"
         style="fill:#00bd05;fill-opacity:0;fill-rule:evenodd;stroke:#444444;stroke-width:0.35433072;stroke-linecap:round;stroke-linejoin:miter;stroke-miterlimit:4;stroke-opacity:1;stroke-dasharray:none;stroke-dashoffset:0"
         sodipodi:type="arc" />
      <path
         transform="translate(26.574811,12.401585)"
         d="m 318.89763,317.12598 c 0,0.97845 -0.7932,1.77165 -1.77165,1.77165 -0.97846,0 -1.77166,-0.7932 -1.77166,-1.77165 0,-0.97846 0.7932,-1.77166 1.77166,-1.77166 0.97845,0 1.77165,0.7932 1.77165,1.77166 z"
         sodipodi:ry="1.7716535"
         sodipodi:rx="1.7716535"
         sodipodi:cy="317.12598"
         sodipodi:cx="317.12598"
         id="path3035-0-9-7-1"
         style="fill:#00bd05;fill-opacity:0;fill-rule:evenodd;stroke:#444444;stroke-width:0.35433072;stroke-linecap:round;stroke-linejoin:miter;stroke-miterlimit:4;stroke-opacity:1;stroke-dasharray:none;stroke-dashoffset:0"
         sodipodi:type="arc" />
      <path
         transform="translate(26.574811,19.488185)"
         d="m 318.89763,317.12598 c 0,0.97845 -0.7932,1.77165 -1.77165,1.77165 -0.97846,0 -1.77166,-0.7932 -1.77166,-1.77165 0,-0.97846 0.7932,-1.77166 1.77166,-1.77166 0.97845,0 1.77165,0.7932 1.77165,1.77166 z"
         sodipodi:ry="1.7716535"
         sodipodi:rx="1.7716535"
         sodipodi:cy="317.12598"
         sodipodi:cx="317.12598"
         id="path3035-0-1-9-9"
         style="fill:#00bd05;fill-opacity:0;fill-rule:evenodd;stroke:#444444;stroke-width:0.35433072;stroke-linecap:round;stroke-linejoin:miter;stroke-miterlimit:4;stroke-opacity:1;stroke-dasharray:none;stroke-dashoffset:0"
         sodipodi:type="arc" />
      <path
         transform="translate(26.574811,26.574805)"
         d="m 318.89763,317.12598 c 0,0.97845 -0.7932,1.77165 -1.77165,1.77165 -0.97846,0 -1.77166,-0.7932 -1.77166,-1.77165 0,-0.97846 0.7932,-1.77166 1.77166,-1.77166 0.97845,0 1.77165,0.7932 1.77165,1.77166 z"
         sodipodi:ry="1.7716535"
         sodipodi:rx="1.7716535"
         sodipodi:cy="317.12598"
         sodipodi:cx="317.12598"
         id="path3035-0-9-3-93-4"
         style="fill:#00bd05;fill-opacity:0;fill-rule:evenodd;stroke:#444444;stroke-width:0.35433072;stroke-linecap:round;stroke-linejoin:miter;stroke-miterlimit:4;stroke-opacity:1;stroke-dasharray:none;stroke-dashoffset:0"
         sodipodi:type="arc" />
      <path
         transform="translate(26.574811,33.661425)"
         d="m 318.89763,317.12598 c 0,0.97845 -0.7932,1.77165 -1.77165,1.77165 -0.97846,0 -1.77166,-0.7932 -1.77166,-1.77165 0,-0.97846 0.7932,-1.77166 1.77166,-1.77166 0.97845,0 1.77165,0.7932 1.77165,1.77166 z"
         sodipodi:ry="1.7716535"
         sodipodi:rx="1.7716535"
         sodipodi:cy="317.12598"
         sodipodi:cx="317.12598"
         id="path3035-0-9-3-1-0-1"
         style="fill:#00bd05;fill-opacity:0;fill-rule:evenodd;stroke:#444444;stroke-width:0.35433072;stroke-linecap:round;stroke-linejoin:miter;stroke-miterlimit:4;stroke-opacity:1;stroke-dasharray:none;stroke-dashoffset:0"
         sodipodi:type="arc" />
    </g>
  </g>
  <g
     inkscape:groupmode="layer"
     id="layer3"
     inkscape:label="Wall1">
    <path
       style="fill:#000000;fill-opacity:0.03921569;stroke:#a1a1a1;stroke-width:2.83464527;stroke-linecap:butt;stroke-linejoin:miter;stroke-miterlimit:4;stroke-opacity:1;stroke-dasharray:none;display:inline"
       d="m 310.39382,603.77951 283.46445,0 0,-283.46456 -283.46445,0 z"
       id="path3005-2"
       inkscape:connector-curvature="0" />
  </g>
  <g
     inkscape:groupmode="layer"
     id="layer2"
     inkscape:label="wall0">
    <path
       style="fill:#000000;fill-opacity:0.03921569;stroke:#a1a1a1;stroke-width:2.83464527;stroke-linecap:butt;stroke-linejoin:miter;stroke-miterlimit:4;stroke-opacity:1;stroke-dasharray:none;display:inline"
       d="m 225.35437,688.81883 283.46453,0 0,-283.46451 -283.46453,0 z"
       id="path3005-0"
       inkscape:connector-curvature="0" />
  </g>
</svg>
